…
``` r
times = 50
mse_df = birth_weight |>
  modelr::crossv_mc(n = times) |>
  mutate(train = map(train, as.tibble), 
         test = map(test, as.tibble), 
         eval_mse = map2(train, test, model_eval)) |>
  unnest(eval_mse) |>
  select(starts_with("mse"))
mse_df 
```

    ## # A tibble: 50 × 3
    ##      mse0    mse1   mse2
    ##     <dbl>   <dbl>  <dbl>
    ##  1 73313. 105338. 79550.
    ##  2 78590. 109716. 82547.
    ##  3 76812. 106365. 79536.
    ##  4 80085. 115095. 85635.
    ##  5 82592. 105258. 83569.
    ##  6 76646. 108908. 80402.
    ##  7 84895. 110351. 87753.
    ##  8 81636. 105656. 84172.
    ##  9 70249.  99271. 72880.
    ## 10 79789. 114548. 84608.
    ## # ℹ 40 more rows
…
